EDI_9Fin_Sample_20190109
Actflag	Created	Changed	SecID	IssID	BbeID	ScexhID	SedolID	SedolActflag	ISIN	USCode	Sedol	SedolDefunct	SedolRegCntryCD	BbgexhId	Bbgexhtk	ExchgCD	MIC	LocalCode	SecurityDesc	CurenCD	SectyCD	IssuerName	IssueDate	IssueAmount	CntryofIncorp	isstype	InterestRate	InterestBasis	MatPrice	NominalValue	OutstandingAmount	ParValue	DenominationMultiple	MaturityDate	MaturityStructure	IndusID	CFI	CIK	SIC	GICS	LEI	NAICS	Tier	UppLow	SeniorJunior	Subordinate	guaranteed	CpoptID	CallPut	FromDate	ToDate	NoticeFrom	NoticeTo	Currency	Price	MandatoryOptional	MinNoticeDays	MaxNoticeDays	cptype	PriceAsPercent	InWholePart	FormulaBasedPrice	StatusFlag
U	2013/06/11	2018/07/03	4055279	111411	501281	6362955	1440838	I	US45867XAG97	45867XAG9	BBHG502	F		BBG004P425L8	INTGEN 7 06/30/23 144A	USOTC	OTCM		7% NT REDEEM 30/06/2023 USD 200000 - 144A	USD	BND	Intergen N.V.	2013/06/13	750	NL	CORP	7	FXD	200000	200000	420	200000.00000	1000	2023/06/30	R		DBFSGR				549300E3XRGX2JMPEC79				S		T	8505452	C	2013/06/14	2018/06/29			USD		O	30	60	US		B	Y	A
U	2013/06/11	2018/07/03	4055279	111411	501281	6362955	1440838	I	US45867XAG97	45867XAG9	BBHG502	F		BBG004P425L8	INTGEN 7 06/30/23 144A	USOTC	OTCM		7% NT REDEEM 30/06/2023 USD 200000 - 144A	USD	BND	Intergen N.V.	2013/06/13	750	NL	CORP	7	FXD	200000	200000	420	200000.00000	1000	2023/06/30	R		DBFSGR				549300E3XRGX2JMPEC79				S		T	8505453	C	2018/06/30	2019/06/29			USD	207000.00000	O	30	60	US	103.500000000	B	N	A
U	2013/06/11	2018/07/03	4055279	111411	501281	6362955	1440838	I	US45867XAG97	45867XAG9	BBHG502	F		BBG004P425L8	INTGEN 7 06/30/23 144A	USOTC	OTCM		7% NT REDEEM 30/06/2023 USD 200000 - 144A	USD	BND	Intergen N.V.	2013/06/13	750	NL	CORP	7	FXD	200000	200000	420	200000.00000	1000	2023/06/30	R		DBFSGR				549300E3XRGX2JMPEC79				S		T	8505454	C	2019/06/30	2020/06/29			USD	204666.00000	O	30	60	US	102.333000000	B	N	A
U	2013/06/11	2018/07/03	4055279	111411	501281	6362955	1440838	I	US45867XAG97	45867XAG9	BBHG502	F		BBG004P425L8	INTGEN 7 06/30/23 144A	USOTC	OTCM		7% NT REDEEM 30/06/2023 USD 200000 - 144A	USD	BND	Intergen N.V.	2013/06/13	750	NL	CORP	7	FXD	200000	200000	420	200000.00000	1000	2023/06/30	R		DBFSGR				549300E3XRGX2JMPEC79				S		T	8505455	C	2020/06/30	2021/06/29			USD	202334.00000	O	30	60	US	101.167000000	B	N	A
U	2013/06/11	2018/07/03	4055279	111411	501281	6362955	1440838	I	US45867XAG97	45867XAG9	BBHG502	F		BBG004P425L8	INTGEN 7 06/30/23 144A	USOTC	OTCM		7% NT REDEEM 30/06/2023 USD 200000 - 144A	USD	BND	Intergen N.V.	2013/06/13	750	NL	CORP	7	FXD	200000	200000	420	200000.00000	1000	2023/06/30	R		DBFSGR				549300E3XRGX2JMPEC79				S		T	8505456	C	2021/06/30	2023/06/29			USD	200000.00000	O	30	60	US	100.000000000	B	N	A
U	2013/04/12	2018/06/20	4017410	100380	487246	5760207	1427031	I	US81725WAG87	81725WAG8	B8C2W58	F		BBG004F7NGK6	ST 4.875 10/15/23 144A	USTRCE	FINR	ST3994123	4.875% NT REDEEM 15/10/2023 USD 2000 - 144A	USD	BND	Sensata Technologies B.V.	2013/04/17	500	NL	CORP	4.875	FXD	2000	2000	500	2000	1000	2023/10/15	R		DBFUGR	0001381272	3823		PUCKW5P5O3XMOZVH7T53	334513			S		T	8251663	C	2013/04/18	2023/10/14			USD		O	30	60	MWC		B	Y	A
U	2013/04/12	2018/06/20	4017410	100380	487246	6487471	1427031	I	US81725WAG87	81725WAG8	B8C2W58	F		BBG004F7NGK6	ST 4.875 10/15/23 144A	USOTC	OTCM		4.875% NT REDEEM 15/10/2023 USD 2000 - 144A	USD	BND	Sensata Technologies B.V.	2013/04/17	500	NL	CORP	4.875	FXD	2000	2000	500	2000	1000	2023/10/15	R		DBFUGR	0001381272	3823		PUCKW5P5O3XMOZVH7T53	334513			S		T	8251663	C	2013/04/18	2023/10/14			USD		O	30	60	MWC		B	Y	A
U	2017/01/18	2018/08/15	5022592	39669	923777	7001154	1808678	I	US880779AZ60	880779AZ6	BYM4WY5	F		BBG00FRXJQY9	TEX 5.625 02/01/25 144A	USTRCE	FINR	TEX4445872	5.625% NT REDEEM 01/02/2025 USD 2000 - 144A	USD	BND	Terex Corp.	2017/01/31	600.00000	US	CORP	5.62500	FXD	2000.000000	0	600.00000	2000.00000	1000	2025/02/01	R	83		0000097216	3537	20106010	YAWJZJYEQ7M1SYMOS462	336120			S		F	10039702	C	2017/02/01	2020/01/31			USD		O	20	60	MWC		B	Y	A
U	2017/01/18	2018/08/15	5022592	39669	923777	7001154	1808678	I	US880779AZ60	880779AZ6	BYM4WY5	F		BBG00FRXJQY9	TEX 5.625 02/01/25 144A	USTRCE	FINR	TEX4445872	5.625% NT REDEEM 01/02/2025 USD 2000 - 144A	USD	BND	Terex Corp.	2017/01/31	600.00000	US	CORP	5.62500	FXD	2000.000000	0	600.00000	2000.00000	1000	2025/02/01	R	83		0000097216	3537	20106010	YAWJZJYEQ7M1SYMOS462	336120			S		F	10039703	C	2020/02/01	2021/01/31			USD	2084.38000	O	20	60	US	104.219000000	B	N	A
U	2017/01/18	2018/08/15	5022592	39669	923777	7001154	1808678	I	US880779AZ60	880779AZ6	BYM4WY5	F		BBG00FRXJQY9	TEX 5.625 02/01/25 144A	USTRCE	FINR	TEX4445872	5.625% NT REDEEM 01/02/2025 USD 2000 - 144A	USD	BND	Terex Corp.	2017/01/31	600.00000	US	CORP	5.62500	FXD	2000.000000	0	600.00000	2000.00000	1000	2025/02/01	R	83		0000097216	3537	20106010	YAWJZJYEQ7M1SYMOS462	336120			S		F	10039704	C	2021/02/01	2022/01/31			USD	2056.26000	O	20	60	US	102.813000000	B	N	A
U	2017/01/18	2018/08/15	5022592	39669	923777	7001154	1808678	I	US880779AZ60	880779AZ6	BYM4WY5	F		BBG00FRXJQY9	TEX 5.625 02/01/25 144A	USTRCE	FINR	TEX4445872	5.625% NT REDEEM 01/02/2025 USD 2000 - 144A	USD	BND	Terex Corp.	2017/01/31	600.00000	US	CORP	5.62500	FXD	2000.000000	0	600.00000	2000.00000	1000	2025/02/01	R	83		0000097216	3537	20106010	YAWJZJYEQ7M1SYMOS462	336120			S		F	10039705	C	2022/02/01	2023/01/31			USD	2028.12000	O	20	60	US	101.406000000	B	N	A
U	2017/01/18	2018/08/15	5022592	39669	923777	7001154	1808678	I	US880779AZ60	880779AZ6	BYM4WY5	F		BBG00FRXJQY9	TEX 5.625 02/01/25 144A	USTRCE	FINR	TEX4445872	5.625% NT REDEEM 01/02/2025 USD 2000 - 144A	USD	BND	Terex Corp.	2017/01/31	600.00000	US	CORP	5.62500	FXD	2000.000000	0	600.00000	2000.00000	1000	2025/02/01	R	83		0000097216	3537	20106010	YAWJZJYEQ7M1SYMOS462	336120			S		F	10039706	C	2023/02/01	2025/01/31			USD	2000.00000	O	20	60	US	100.000000000	B	N	A
U	2016/10/14	2018/08/30	4934454	131951	856941	6903949	1786113	I	US92933BAM63	92933BAM6	BD9NGM4	F		BBG00DZMJ0G6	WMG 4.875 11/01/24 144A	USTRCE	FINR	WMG4415099	4.875% NT REDEEM 01/11/2024 USD 2000 - 144A	USD	BND	Wmg Acquisition Corp.	2016/10/18	250.00000	US	CORP	4.87500	FXD	2000.000000	2000.00000	250.00000	2000.00000	1000	2024/11/01	R		DBFSGR	0001309987	7900		549300NAS11NXI33CP80				S		T	9959670	C	2016/10/19	2019/10/31			USD		O	10	60	US		B	Y	A
U	2016/10/14	2018/08/30	4934454	131951	856941	6903949	1786113	I	US92933BAM63	92933BAM6	BD9NGM4	F		BBG00DZMJ0G6	WMG 4.875 11/01/24 144A	USTRCE	FINR	WMG4415099	4.875% NT REDEEM 01/11/2024 USD 2000 - 144A	USD	BND	Wmg Acquisition Corp.	2016/10/18	250.00000	US	CORP	4.87500	FXD	2000.000000	2000.00000	250.00000	2000.00000	1000	2024/11/01	R		DBFSGR	0001309987	7900		549300NAS11NXI33CP80				S		T	9893589	C	2019/11/01	2020/10/31			USD	2073.12000	O	10	60	US	103.656000000	B	N	A
U	2016/10/14	2018/08/30	4934454	131951	856941	6903949	1786113	I	US92933BAM63	92933BAM6	BD9NGM4	F		BBG00DZMJ0G6	WMG 4.875 11/01/24 144A	USTRCE	FINR	WMG4415099	4.875% NT REDEEM 01/11/2024 USD 2000 - 144A	USD	BND	Wmg Acquisition Corp.	2016/10/18	250.00000	US	CORP	4.87500	FXD	2000.000000	2000.00000	250.00000	2000.00000	1000	2024/11/01	R		DBFSGR	0001309987	7900		549300NAS11NXI33CP80				S		T	9893590	C	2020/11/01	2021/10/31			USD	2048.76000	O	10	60	US	102.438000000	B	N	A
U	2016/10/14	2018/08/30	4934454	131951	856941	6903949	1786113	I	US92933BAM63	92933BAM6	BD9NGM4	F		BBG00DZMJ0G6	WMG 4.875 11/01/24 144A	USTRCE	FINR	WMG4415099	4.875% NT REDEEM 01/11/2024 USD 2000 - 144A	USD	BND	Wmg Acquisition Corp.	2016/10/18	250.00000	US	CORP	4.87500	FXD	2000.000000	2000.00000	250.00000	2000.00000	1000	2024/11/01	R		DBFSGR	0001309987	7900		549300NAS11NXI33CP80				S		T	9893591	C	2021/11/01	2022/10/31			USD	2024.38000	O	10	60	US	101.219000000	B	N	A
U	2016/10/14	2018/08/30	4934454	131951	856941	6903949	1786113	I	US92933BAM63	92933BAM6	BD9NGM4	F		BBG00DZMJ0G6	WMG 4.875 11/01/24 144A	USTRCE	FINR	WMG4415099	4.875% NT REDEEM 01/11/2024 USD 2000 - 144A	USD	BND	Wmg Acquisition Corp.	2016/10/18	250.00000	US	CORP	4.87500	FXD	2000.000000	2000.00000	250.00000	2000.00000	1000	2024/11/01	R		DBFSGR	0001309987	7900		549300NAS11NXI33CP80				S		T	9893592	C	2022/11/01	2024/10/31			USD	2000.00000	O	10	60	US	100.000000000	B	N	A
U	2016/09/19	2016/12/12	4905351	179781	844346	6872114	1774095	I	US98954NAA72	98954NAA7	BZCR8C1	F		BBG00DSXNPW2	ZIGGO 5.5 01/15/27 144A	USTRCE	FINR	ZIGGF4405395	5.50% NT REDEEM 15/01/2027 USD 150000 - 144A	USD	BND	Ziggo Secured Finance B.V.	2016/09/23	2000.00000	NL	CORP	5.50000	FXD	150000.000000	150000.00000	2000.00000	150000.00000	1000	2027/01/15	R		DBFSGR				5493004ZFKKSO1IHO030				S		T	9921385	C	2016/09/24	2022/01/14			USD		O	10	60	US		B	Y	A
U	2016/09/19	2016/12/12	4905351	179781	844346	6872114	1774095	I	US98954NAA72	98954NAA7	BZCR8C1	F		BBG00DSXNPW2	ZIGGO 5.5 01/15/27 144A	USTRCE	FINR	ZIGGF4405395	5.50% NT REDEEM 15/01/2027 USD 150000 - 144A	USD	BND	Ziggo Secured Finance B.V.	2016/09/23	2000.00000	NL	CORP	5.50000	FXD	150000.000000	150000.00000	2000.00000	150000.00000	1000	2027/01/15	R		DBFSGR				5493004ZFKKSO1IHO030				S		T	9877469	C	2022/01/15	2023/01/14			USD	154125.00000	O	10	60	US	102.750000000	B	N	A
U	2016/09/19	2016/12/12	4905351	179781	844346	6872114	1774095	I	US98954NAA72	98954NAA7	BZCR8C1	F		BBG00DSXNPW2	ZIGGO 5.5 01/15/27 144A	USTRCE	FINR	ZIGGF4405395	5.50% NT REDEEM 15/01/2027 USD 150000 - 144A	USD	BND	Ziggo Secured Finance B.V.	2016/09/23	2000.00000	NL	CORP	5.50000	FXD	150000.000000	150000.00000	2000.00000	150000.00000	1000	2027/01/15	R		DBFSGR				5493004ZFKKSO1IHO030				S		T	9877470	C	2023/01/15	2024/01/14			USD	152749.50000	O	10	60	US	101.833000000	B	N	A
U	2016/09/19	2016/12/12	4905351	179781	844346	6872114	1774095	I	US98954NAA72	98954NAA7	BZCR8C1	F		BBG00DSXNPW2	ZIGGO 5.5 01/15/27 144A	USTRCE	FINR	ZIGGF4405395	5.50% NT REDEEM 15/01/2027 USD 150000 - 144A	USD	BND	Ziggo Secured Finance B.V.	2016/09/23	2000.00000	NL	CORP	5.50000	FXD	150000.000000	150000.00000	2000.00000	150000.00000	1000	2027/01/15	R		DBFSGR				5493004ZFKKSO1IHO030				S		T	9877471	C	2024/01/15	2025/01/14			USD	151375.50000	O	10	60	US	100.917000000	B	N	A
U	2016/09/19	2016/12/12	4905351	179781	844346	6872114	1774095	I	US98954NAA72	98954NAA7	BZCR8C1	F		BBG00DSXNPW2	ZIGGO 5.5 01/15/27 144A	USTRCE	FINR	ZIGGF4405395	5.50% NT REDEEM 15/01/2027 USD 150000 - 144A	USD	BND	Ziggo Secured Finance B.V.	2016/09/23	2000.00000	NL	CORP	5.50000	FXD	150000.000000	150000.00000	2000.00000	150000.00000	1000	2027/01/15	R		DBFSGR				5493004ZFKKSO1IHO030				S		T	9877472	C	2025/01/15	2027/01/14			USD	150000.00000	O	10	60	US	100.000000000	B	N	A
U	2016/09/19		4905351	179781	844346	6874781	1774095	I	US98954NAA72	98954NAA7	BZCR8C1	F		BBG00DSXNPW2	ZIGGO 5.5 01/15/27 144A	IEISE	XDUB		5.50% NT REDEEM 15/01/2027 USD 150000 - 144A	USD	BND	Ziggo Secured Finance B.V.	2016/09/23	2000.00000	NL	CORP	5.50000	FXD	150000.000000	150000.00000	2000.00000	150000.00000	1000	2027/01/15	R		DBFSGR				5493004ZFKKSO1IHO030				S		T	9921385	C	2016/09/24	2022/01/14			USD		O	10	60	US		B	Y	A
U	2016/09/19		4905351	179781	844346	6874781	1774095	I	US98954NAA72	98954NAA7	BZCR8C1	F		BBG00DSXNPW2	ZIGGO 5.5 01/15/27 144A	IEISE	XDUB		5.50% NT REDEEM 15/01/2027 USD 150000 - 144A	USD	BND	Ziggo Secured Finance B.V.	2016/09/23	2000.00000	NL	CORP	5.50000	FXD	150000.000000	150000.00000	2000.00000	150000.00000	1000	2027/01/15	R		DBFSGR				5493004ZFKKSO1IHO030				S		T	9877469	C	2022/01/15	2023/01/14			USD	154125.00000	O	10	60	US	102.750000000	B	N	A
U	2016/09/19		4905351	179781	844346	6874781	1774095	I	US98954NAA72	98954NAA7	BZCR8C1	F		BBG00DSXNPW2	ZIGGO 5.5 01/15/27 144A	IEISE	XDUB		5.50% NT REDEEM 15/01/2027 USD 150000 - 144A	USD	BND	Ziggo Secured Finance B.V.	2016/09/23	2000.00000	NL	CORP	5.50000	FXD	150000.000000	150000.00000	2000.00000	150000.00000	1000	2027/01/15	R		DBFSGR				5493004ZFKKSO1IHO030				S		T	9877470	C	2023/01/15	2024/01/14			USD	152749.50000	O	10	60	US	101.833000000	B	N	A
U	2016/09/19		4905351	179781	844346	6874781	1774095	I	US98954NAA72	98954NAA7	BZCR8C1	F		BBG00DSXNPW2	ZIGGO 5.5 01/15/27 144A	IEISE	XDUB		5.50% NT REDEEM 15/01/2027 USD 150000 - 144A	USD	BND	Ziggo Secured Finance B.V.	2016/09/23	2000.00000	NL	CORP	5.50000	FXD	150000.000000	150000.00000	2000.00000	150000.00000	1000	2027/01/15	R		DBFSGR				5493004ZFKKSO1IHO030				S		T	9877471	C	2024/01/15	2025/01/14			USD	151375.50000	O	10	60	US	100.917000000	B	N	A
U	2016/09/19		4905351	179781	844346	6874781	1774095	I	US98954NAA72	98954NAA7	BZCR8C1	F		BBG00DSXNPW2	ZIGGO 5.5 01/15/27 144A	IEISE	XDUB		5.50% NT REDEEM 15/01/2027 USD 150000 - 144A	USD	BND	Ziggo Secured Finance B.V.	2016/09/23	2000.00000	NL	CORP	5.50000	FXD	150000.000000	150000.00000	2000.00000	150000.00000	1000	2027/01/15	R		DBFSGR				5493004ZFKKSO1IHO030				S		T	9877472	C	2025/01/15	2027/01/14			USD	150000.00000	O	10	60	US	100.000000000	B	N	A
U	2016/09/19	2016/12/12	4905354	179782	844347	6872117	1774112	I	US98954UAB98	98954UAB9	BZCR8L0	F		BBG00DSX0YW8	ZIGGO 6 01/15/27 144A	USTRCE	FINR	ZIGGF4405397	6% NT REDEEM 15/01/2027 USD 150000 - 144A	USD	BND	Ziggo Bond Finance B.V.	2016/09/23	625.00000	NL	CORP	6.00000	FXD	150000.000000	150000.00000	625.00000	150000.00000	1000	2027/01/15	R		DBFUGR				5493000YDO2OTY2PZU63				S		T	9921394	C	2016/09/24	2022/01/14			USD		O	10	60	US		B	Y	A
U	2016/09/19	2016/12/12	4905354	179782	844347	6872117	1774112	I	US98954UAB98	98954UAB9	BZCR8L0	F		BBG00DSX0YW8	ZIGGO 6 01/15/27 144A	USTRCE	FINR	ZIGGF4405397	6% NT REDEEM 15/01/2027 USD 150000 - 144A	USD	BND	Ziggo Bond Finance B.V.	2016/09/23	625.00000	NL	CORP	6.00000	FXD	150000.000000	150000.00000	625.00000	150000.00000	1000	2027/01/15	R		DBFUGR				5493000YDO2OTY2PZU63				S		T	9877072	C	2022/01/15	2023/01/14			USD	154500.00000	O	10	60	US	103.000000000	B	N	A
U	2016/09/19	2016/12/12	4905354	179782	844347	6872117	1774112	I	US98954UAB98	98954UAB9	BZCR8L0	F		BBG00DSX0YW8	ZIGGO 6 01/15/27 144A	USTRCE	FINR	ZIGGF4405397	6% NT REDEEM 15/01/2027 USD 150000 - 144A	USD	BND	Ziggo Bond Finance B.V.	2016/09/23	625.00000	NL	CORP	6.00000	FXD	150000.000000	150000.00000	625.00000	150000.00000	1000	2027/01/15	R		DBFUGR				5493000YDO2OTY2PZU63				S		T	9877073	C	2023/01/15	2024/01/14			USD	153000.00000	O	10	60	US	102.000000000	B	N	A
U	2016/09/19	2016/12/12	4905354	179782	844347	6872117	1774112	I	US98954UAB98	98954UAB9	BZCR8L0	F		BBG00DSX0YW8	ZIGGO 6 01/15/27 144A	USTRCE	FINR	ZIGGF4405397	6% NT REDEEM 15/01/2027 USD 150000 - 144A	USD	BND	Ziggo Bond Finance B.V.	2016/09/23	625.00000	NL	CORP	6.00000	FXD	150000.000000	150000.00000	625.00000	150000.00000	1000	2027/01/15	R		DBFUGR				5493000YDO2OTY2PZU63				S		T	9877074	C	2024/01/15	2025/01/14			USD	151500.00000	O	10	60	US	101.000000000	B	N	A
U	2016/09/19	2016/12/12	4905354	179782	844347	6872117	1774112	I	US98954UAB98	98954UAB9	BZCR8L0	F		BBG00DSX0YW8	ZIGGO 6 01/15/27 144A	USTRCE	FINR	ZIGGF4405397	6% NT REDEEM 15/01/2027 USD 150000 - 144A	USD	BND	Ziggo Bond Finance B.V.	2016/09/23	625.00000	NL	CORP	6.00000	FXD	150000.000000	150000.00000	625.00000	150000.00000	1000	2027/01/15	R		DBFUGR				5493000YDO2OTY2PZU63				S		T	9877075	C	2025/01/15	2027/01/14			USD	150000.00000	O	10	60	US	100.000000000	B	N	A
U	2016/09/19		4905354	179782	844347	6873434	1774112	I	US98954UAB98	98954UAB9	BZCR8L0	F		BBG00DSX0YW8	ZIGGO 6 01/15/27 144A	IEISE	XDUB		6% NT REDEEM 15/01/2027 USD 150000 - 144A	USD	BND	Ziggo Bond Finance B.V.	2016/09/23	625.00000	NL	CORP	6.00000	FXD	150000.000000	150000.00000	625.00000	150000.00000	1000	2027/01/15	R		DBFUGR				5493000YDO2OTY2PZU63				S		T	9921394	C	2016/09/24	2022/01/14			USD		O	10	60	US		B	Y	A
U	2016/09/19		4905354	179782	844347	6873434	1774112	I	US98954UAB98	98954UAB9	BZCR8L0	F		BBG00DSX0YW8	ZIGGO 6 01/15/27 144A	IEISE	XDUB		6% NT REDEEM 15/01/2027 USD 150000 - 144A	USD	BND	Ziggo Bond Finance B.V.	2016/09/23	625.00000	NL	CORP	6.00000	FXD	150000.000000	150000.00000	625.00000	150000.00000	1000	2027/01/15	R		DBFUGR				5493000YDO2OTY2PZU63				S		T	9877072	C	2022/01/15	2023/01/14			USD	154500.00000	O	10	60	US	103.000000000	B	N	A
U	2016/09/19		4905354	179782	844347	6873434	1774112	I	US98954UAB98	98954UAB9	BZCR8L0	F		BBG00DSX0YW8	ZIGGO 6 01/15/27 144A	IEISE	XDUB		6% NT REDEEM 15/01/2027 USD 150000 - 144A	USD	BND	Ziggo Bond Finance B.V.	2016/09/23	625.00000	NL	CORP	6.00000	FXD	150000.000000	150000.00000	625.00000	150000.00000	1000	2027/01/15	R		DBFUGR				5493000YDO2OTY2PZU63				S		T	9877073	C	2023/01/15	2024/01/14			USD	153000.00000	O	10	60	US	102.000000000	B	N	A
U	2016/09/19		4905354	179782	844347	6873434	1774112	I	US98954UAB98	98954UAB9	BZCR8L0	F		BBG00DSX0YW8	ZIGGO 6 01/15/27 144A	IEISE	XDUB		6% NT REDEEM 15/01/2027 USD 150000 - 144A	USD	BND	Ziggo Bond Finance B.V.	2016/09/23	625.00000	NL	CORP	6.00000	FXD	150000.000000	150000.00000	625.00000	150000.00000	1000	2027/01/15	R		DBFUGR				5493000YDO2OTY2PZU63				S		T	9877074	C	2024/01/15	2025/01/14			USD	151500.00000	O	10	60	US	101.000000000	B	N	A
U	2016/09/19		4905354	179782	844347	6873434	1774112	I	US98954UAB98	98954UAB9	BZCR8L0	F		BBG00DSX0YW8	ZIGGO 6 01/15/27 144A	IEISE	XDUB		6% NT REDEEM 15/01/2027 USD 150000 - 144A	USD	BND	Ziggo Bond Finance B.V.	2016/09/23	625.00000	NL	CORP	6.00000	FXD	150000.000000	150000.00000	625.00000	150000.00000	1000	2027/01/15	R		DBFUGR				5493000YDO2OTY2PZU63				S		T	9877075	C	2025/01/15	2027/01/14			USD	150000.00000	O	10	60	US	100.000000000	B	N	A
U	2013/01/24	2018/08/30	3969804	154424	467613	5818549	1406852	U	USL0770RAA34	L0770RAA3	B93S735	T	ZZ	BBG0042BF8N5	ATENTO 7.375 01/29/20 REGS	IEISE	XDUB		7.375% NT REDEEM 29/01/2020 USD 150000 - Reg S	USD	BND	Atento Luxco 1 S.A.	2013/01/29	300	LU	CORP	7.375	FXD	150000	150000	300	150000	1000	2020/01/29	R		DBFSGR				549300MLFF3HYCZQTC48				S		T	10204937	C	2013/01/30	2016/01/28			USD		O	30	60	MWC		B	Y	A
U	2013/01/24	2018/08/30	3969804	154424	467613	5818549	1406852	U	USL0770RAA34	L0770RAA3	B93S735	T	ZZ	BBG0042BF8N5	ATENTO 7.375 01/29/20 REGS	IEISE	XDUB		7.375% NT REDEEM 29/01/2020 USD 150000 - Reg S	USD	BND	Atento Luxco 1 S.A.	2013/01/29	300	LU	CORP	7.375	FXD	150000	150000	300	150000	1000	2020/01/29	R		DBFSGR				549300MLFF3HYCZQTC48				S		T	9387183	C	2016/01/29	2017/01/28			USD	158296.5	O	30	60	US	105.531	B	N	A
U	2013/01/24	2018/08/30	3969804	154424	467613	5818549	1406852	U	USL0770RAA34	L0770RAA3	B93S735	T	ZZ	BBG0042BF8N5	ATENTO 7.375 01/29/20 REGS	IEISE	XDUB		7.375% NT REDEEM 29/01/2020 USD 150000 - Reg S	USD	BND	Atento Luxco 1 S.A.	2013/01/29	300	LU	CORP	7.375	FXD	150000	150000	300	150000	1000	2020/01/29	R		DBFSGR				549300MLFF3HYCZQTC48				S		T	9387184	C	2017/01/29	2018/01/28			USD	155532	O	30	60	US	103.688	B	N	A
U	2013/01/24	2018/08/30	3969804	154424	467613	5818549	1406852	U	USL0770RAA34	L0770RAA3	B93S735	T	ZZ	BBG0042BF8N5	ATENTO 7.375 01/29/20 REGS	IEISE	XDUB		7.375% NT REDEEM 29/01/2020 USD 150000 - Reg S	USD	BND	Atento Luxco 1 S.A.	2013/01/29	300	LU	CORP	7.375	FXD	150000	150000	300	150000	1000	2020/01/29	R		DBFSGR				549300MLFF3HYCZQTC48				S		T	9387185	C	2018/01/29	2019/01/28			USD	152766	O	30	60	US	101.844	B	N	A
U	2013/01/24	2018/08/30	3969804	154424	467613	5818549	1406852	U	USL0770RAA34	L0770RAA3	B93S735	T	ZZ	BBG0042BF8N5	ATENTO 7.375 01/29/20 REGS	IEISE	XDUB		7.375% NT REDEEM 29/01/2020 USD 150000 - Reg S	USD	BND	Atento Luxco 1 S.A.	2013/01/29	300	LU	CORP	7.375	FXD	150000	150000	300	150000	1000	2020/01/29	R		DBFSGR				549300MLFF3HYCZQTC48				S		T	9387186	C	2019/01/29	2020/01/28			USD	150000	O	30	60	US	100	B	N	A
U	2013/01/24	2018/08/30	3969804	154424	467613	5807512	0		USL0770RAA34	L0770RAA3				BBG0042BF8N5	ATENTO 7.375 01/29/20 REGS	USTRCE	FINR	BCLU3958625	7.375% NT REDEEM 29/01/2020 USD 150000 - Reg S	USD	BND	Atento Luxco 1 S.A.	2013/01/29	300	LU	CORP	7.375	FXD	150000	150000	300	150000	1000	2020/01/29	R		DBFSGR				549300MLFF3HYCZQTC48				S		T	10204937	C	2013/01/30	2016/01/28			USD		O	30	60	MWC		B	Y	A
U	2013/01/24	2018/08/30	3969804	154424	467613	5807512	0		USL0770RAA34	L0770RAA3				BBG0042BF8N5	ATENTO 7.375 01/29/20 REGS	USTRCE	FINR	BCLU3958625	7.375% NT REDEEM 29/01/2020 USD 150000 - Reg S	USD	BND	Atento Luxco 1 S.A.	2013/01/29	300	LU	CORP	7.375	FXD	150000	150000	300	150000	1000	2020/01/29	R		DBFSGR				549300MLFF3HYCZQTC48				S		T	9387183	C	2016/01/29	2017/01/28			USD	158296.5	O	30	60	US	105.531	B	N	A
U	2013/01/24	2018/08/30	3969804	154424	467613	5807512	0		USL0770RAA34	L0770RAA3				BBG0042BF8N5	ATENTO 7.375 01/29/20 REGS	USTRCE	FINR	BCLU3958625	7.375% NT REDEEM 29/01/2020 USD 150000 - Reg S	USD	BND	Atento Luxco 1 S.A.	2013/01/29	300	LU	CORP	7.375	FXD	150000	150000	300	150000	1000	2020/01/29	R		DBFSGR				549300MLFF3HYCZQTC48				S		T	9387184	C	2017/01/29	2018/01/28			USD	155532	O	30	60	US	103.688	B	N	A
U	2013/01/24	2018/08/30	3969804	154424	467613	5807512	0		USL0770RAA34	L0770RAA3				BBG0042BF8N5	ATENTO 7.375 01/29/20 REGS	USTRCE	FINR	BCLU3958625	7.375% NT REDEEM 29/01/2020 USD 150000 - Reg S	USD	BND	Atento Luxco 1 S.A.	2013/01/29	300	LU	CORP	7.375	FXD	150000	150000	300	150000	1000	2020/01/29	R		DBFSGR				549300MLFF3HYCZQTC48				S		T	9387185	C	2018/01/29	2019/01/28			USD	152766	O	30	60	US	101.844	B	N	A
U	2013/01/24	2018/08/30	3969804	154424	467613	5807512	0		USL0770RAA34	L0770RAA3				BBG0042BF8N5	ATENTO 7.375 01/29/20 REGS	USTRCE	FINR	BCLU3958625	7.375% NT REDEEM 29/01/2020 USD 150000 - Reg S	USD	BND	Atento Luxco 1 S.A.	2013/01/29	300	LU	CORP	7.375	FXD	150000	150000	300	150000	1000	2020/01/29	R		DBFSGR				549300MLFF3HYCZQTC48				S		T	9387186	C	2019/01/29	2020/01/28			USD	150000	O	30	60	US	100	B	N	A
U	2013/01/24	2018/08/30	3969804	154424	467613	6317650	0		USL0770RAA34	L0770RAA3				BBG0042BF8N5	ATENTO 7.375 01/29/20 REGS	USOTC	OTCM		7.375% NT REDEEM 29/01/2020 USD 150000 - Reg S	USD	BND	Atento Luxco 1 S.A.	2013/01/29	300	LU	CORP	7.375	FXD	150000	150000	300	150000	1000	2020/01/29	R		DBFSGR				549300MLFF3HYCZQTC48				S		T	10204937	C	2013/01/30	2016/01/28			USD		O	30	60	MWC		B	Y	A
U	2013/01/24	2018/08/30	3969804	154424	467613	6317650	0		USL0770RAA34	L0770RAA3				BBG0042BF8N5	ATENTO 7.375 01/29/20 REGS	USOTC	OTCM		7.375% NT REDEEM 29/01/2020 USD 150000 - Reg S	USD	BND	Atento Luxco 1 S.A.	2013/01/29	300	LU	CORP	7.375	FXD	150000	150000	300	150000	1000	2020/01/29	R		DBFSGR				549300MLFF3HYCZQTC48				S		T	9387183	C	2016/01/29	2017/01/28			USD	158296.5	O	30	60	US	105.531	B	N	A
U	2013/01/24	2018/08/30	3969804	154424	467613	6317650	0		USL0770RAA34	L0770RAA3				BBG0042BF8N5	ATENTO 7.375 01/29/20 REGS	USOTC	OTCM		7.375% NT REDEEM 29/01/2020 USD 150000 - Reg S	USD	BND	Atento Luxco 1 S.A.	2013/01/29	300	LU	CORP	7.375	FXD	150000	150000	300	150000	1000	2020/01/29	R		DBFSGR				549300MLFF3HYCZQTC48				S		T	9387184	C	2017/01/29	2018/01/28			USD	155532	O	30	60	US	103.688	B	N	A
U	2013/01/24	2018/08/30	3969804	154424	467613	6317650	0		USL0770RAA34	L0770RAA3				BBG0042BF8N5	ATENTO 7.375 01/29/20 REGS	USOTC	OTCM		7.375% NT REDEEM 29/01/2020 USD 150000 - Reg S	USD	BND	Atento Luxco 1 S.A.	2013/01/29	300	LU	CORP	7.375	FXD	150000	150000	300	150000	1000	2020/01/29	R		DBFSGR				549300MLFF3HYCZQTC48				S		T	9387185	C	2018/01/29	2019/01/28			USD	152766	O	30	60	US	101.844	B	N	A
U	2013/01/24	2018/08/30	3969804	154424	467613	6317650	0		USL0770RAA34	L0770RAA3				BBG0042BF8N5	ATENTO 7.375 01/29/20 REGS	USOTC	OTCM		7.375% NT REDEEM 29/01/2020 USD 150000 - Reg S	USD	BND	Atento Luxco 1 S.A.	2013/01/29	300	LU	CORP	7.375	FXD	150000	150000	300	150000	1000	2020/01/29	R		DBFSGR				549300MLFF3HYCZQTC48				S		T	9387186	C	2019/01/29	2020/01/28			USD	150000	O	30	60	US	100	B	N	A
U	2018/08/03	2018/09/19	5632162	190661	1221966	7690519	0		USL5150GAC26	L5150GAC2				BBG00LLZ9N11	INTEL 9.5 02/15/23 REGS	USTRCE	FINR	I4663233	9.50% NT REDEEM 15/02/2023 USD 2000 - Reg S	USD	BND	Intelsat Connect Finance S.A.	2018/08/16	1250	US	CORP	9.5	FXD	2000	2000	1250	2000	1000	2023/02/15	R		DBFNGR				549300T8SOCBO2H77X11				S		T	10299148	C	2018/08/17	2020/08/14			USD		O	30	60	MWC		B	Y	A
U	2018/08/03	2018/09/19	5632162	190661	1221966	7690519	0		USL5150GAC26	L5150GAC2				BBG00LLZ9N11	INTEL 9.5 02/15/23 REGS	USTRCE	FINR	I4663233	9.50% NT REDEEM 15/02/2023 USD 2000 - Reg S	USD	BND	Intelsat Connect Finance S.A.	2018/08/16	1250	US	CORP	9.5	FXD	2000	2000	1250	2000	1000	2023/02/15	R		DBFNGR				549300T8SOCBO2H77X11				S		T	10299149	C	2020/08/15	2021/02/14			USD	2142.5	O	30	60	US	107.125	B	N	A
U	2018/08/03	2018/09/19	5632162	190661	1221966	7690519	0		USL5150GAC26	L5150GAC2				BBG00LLZ9N11	INTEL 9.5 02/15/23 REGS	USTRCE	FINR	I4663233	9.50% NT REDEEM 15/02/2023 USD 2000 - Reg S	USD	BND	Intelsat Connect Finance S.A.	2018/08/16	1250	US	CORP	9.5	FXD	2000	2000	1250	2000	1000	2023/02/15	R		DBFNGR				549300T8SOCBO2H77X11				S		T	10299150	C	2021/02/15	2022/02/14			USD	2095	O	30	60	US	104.75	B	N	A
U	2018/08/03	2018/09/19	5632162	190661	1221966	7690519	0		USL5150GAC26	L5150GAC2				BBG00LLZ9N11	INTEL 9.5 02/15/23 REGS	USTRCE	FINR	I4663233	9.50% NT REDEEM 15/02/2023 USD 2000 - Reg S	USD	BND	Intelsat Connect Finance S.A.	2018/08/16	1250	US	CORP	9.5	FXD	2000	2000	1250	2000	1000	2023/02/15	R		DBFNGR				549300T8SOCBO2H77X11				S		T	10299151	C	2022/02/15	2023/02/14			USD	2000	O	30	60	US	100	B	N	A
U	2018/08/03	2018/09/19	5632162	190661	1221966	7698024	0		USL5150GAC26	L5150GAC2				BBG00LLZ9N11	INTEL 9.5 02/15/23 REGS	LULSE	XLUX		9.50% NT REDEEM 15/02/2023 USD 2000 - Reg S	USD	BND	Intelsat Connect Finance S.A.	2018/08/16	1250	US	CORP	9.5	FXD	2000	2000	1250	2000	1000	2023/02/15	R		DBFNGR				549300T8SOCBO2H77X11				S		T	10299148	C	2018/08/17	2020/08/14			USD		O	30	60	MWC		B	Y	A
U	2018/08/03	2018/09/19	5632162	190661	1221966	7698024	0		USL5150GAC26	L5150GAC2				BBG00LLZ9N11	INTEL 9.5 02/15/23 REGS	LULSE	XLUX		9.50% NT REDEEM 15/02/2023 USD 2000 - Reg S	USD	BND	Intelsat Connect Finance S.A.	2018/08/16	1250	US	CORP	9.5	FXD	2000	2000	1250	2000	1000	2023/02/15	R		DBFNGR				549300T8SOCBO2H77X11				S		T	10299149	C	2020/08/15	2021/02/14			USD	2142.5	O	30	60	US	107.125	B	N	A
U	2018/08/03	2018/09/19	5632162	190661	1221966	7698024	0		USL5150GAC26	L5150GAC2				BBG00LLZ9N11	INTEL 9.5 02/15/23 REGS	LULSE	XLUX		9.50% NT REDEEM 15/02/2023 USD 2000 - Reg S	USD	BND	Intelsat Connect Finance S.A.	2018/08/16	1250	US	CORP	9.5	FXD	2000	2000	1250	2000	1000	2023/02/15	R		DBFNGR				549300T8SOCBO2H77X11				S		T	10299150	C	2021/02/15	2022/02/14			USD	2095	O	30	60	US	104.75	B	N	A
U	2018/08/03	2018/09/19	5632162	190661	1221966	7698024	0		USL5150GAC26	L5150GAC2				BBG00LLZ9N11	INTEL 9.5 02/15/23 REGS	LULSE	XLUX		9.50% NT REDEEM 15/02/2023 USD 2000 - Reg S	USD	BND	Intelsat Connect Finance S.A.	2018/08/16	1250	US	CORP	9.5	FXD	2000	2000	1250	2000	1000	2023/02/15	R		DBFNGR				549300T8SOCBO2H77X11				S		T	10299151	C	2022/02/15	2023/02/14			USD	2000	O	30	60	US	100	B	N	A
U	2018/08/03	2018/09/19	5632162	190661	1221966	7701915	1967935	U	USL5150GAC26	L5150GAC2	BF4MYV5	F	ZZ	BBG00LLZ9N11	INTEL 9.5 02/15/23 REGS	DEBSE	XBER		9.50% NT REDEEM 15/02/2023 USD 2000 - Reg S	USD	BND	Intelsat Connect Finance S.A.	2018/08/16	1250	US	CORP	9.5	FXD	2000	2000	1250	2000	1000	2023/02/15	R		DBFNGR				549300T8SOCBO2H77X11				S		T	10299148	C	2018/08/17	2020/08/14			USD		O	30	60	MWC		B	Y	A
U	2018/08/03	2018/09/19	5632162	190661	1221966	7701915	1967935	U	USL5150GAC26	L5150GAC2	BF4MYV5	F	ZZ	BBG00LLZ9N11	INTEL 9.5 02/15/23 REGS	DEBSE	XBER		9.50% NT REDEEM 15/02/2023 USD 2000 - Reg S	USD	BND	Intelsat Connect Finance S.A.	2018/08/16	1250	US	CORP	9.5	FXD	2000	2000	1250	2000	1000	2023/02/15	R		DBFNGR				549300T8SOCBO2H77X11				S		T	10299149	C	2020/08/15	2021/02/14			USD	2142.5	O	30	60	US	107.125	B	N	A
U	2018/08/03	2018/09/19	5632162	190661	1221966	7701915	1967935	U	USL5150GAC26	L5150GAC2	BF4MYV5	F	ZZ	BBG00LLZ9N11	INTEL 9.5 02/15/23 REGS	DEBSE	XBER		9.50% NT REDEEM 15/02/2023 USD 2000 - Reg S	USD	BND	Intelsat Connect Finance S.A.	2018/08/16	1250	US	CORP	9.5	FXD	2000	2000	1250	2000	1000	2023/02/15	R		DBFNGR				549300T8SOCBO2H77X11				S		T	10299150	C	2021/02/15	2022/02/14			USD	2095	O	30	60	US	104.75	B	N	A
U	2018/08/03	2018/09/19	5632162	190661	1221966	7701915	1967935	U	USL5150GAC26	L5150GAC2	BF4MYV5	F	ZZ	BBG00LLZ9N11	INTEL 9.5 02/15/23 REGS	DEBSE	XBER		9.50% NT REDEEM 15/02/2023 USD 2000 - Reg S	USD	BND	Intelsat Connect Finance S.A.	2018/08/16	1250	US	CORP	9.5	FXD	2000	2000	1250	2000	1000	2023/02/15	R		DBFNGR				549300T8SOCBO2H77X11				S		T	10299151	C	2022/02/15	2023/02/14			USD	2000	O	30	60	US	100	B	N	A
U	2018/08/03	2018/09/19	5632162	190661	1221966	7706166	1967935	U	USL5150GAC26	L5150GAC2	BF4MYV5	F	ZZ	BBG00LLZ9N11	INTEL 9.5 02/15/23 REGS	DEFSX	XFRA		9.50% NT REDEEM 15/02/2023 USD 2000 - Reg S	USD	BND	Intelsat Connect Finance S.A.	2018/08/16	1250	US	CORP	9.5	FXD	2000	2000	1250	2000	1000	2023/02/15	R		DBFNGR				549300T8SOCBO2H77X11				S		T	10299148	C	2018/08/17	2020/08/14			USD		O	30	60	MWC		B	Y	A
U	2018/08/03	2018/09/19	5632162	190661	1221966	7706166	1967935	U	USL5150GAC26	L5150GAC2	BF4MYV5	F	ZZ	BBG00LLZ9N11	INTEL 9.5 02/15/23 REGS	DEFSX	XFRA		9.50% NT REDEEM 15/02/2023 USD 2000 - Reg S	USD	BND	Intelsat Connect Finance S.A.	2018/08/16	1250	US	CORP	9.5	FXD	2000	2000	1250	2000	1000	2023/02/15	R		DBFNGR				549300T8SOCBO2H77X11				S		T	10299149	C	2020/08/15	2021/02/14			USD	2142.5	O	30	60	US	107.125	B	N	A
U	2018/08/03	2018/09/19	5632162	190661	1221966	7706166	1967935	U	USL5150GAC26	L5150GAC2	BF4MYV5	F	ZZ	BBG00LLZ9N11	INTEL 9.5 02/15/23 REGS	DEFSX	XFRA		9.50% NT REDEEM 15/02/2023 USD 2000 - Reg S	USD	BND	Intelsat Connect Finance S.A.	2018/08/16	1250	US	CORP	9.5	FXD	2000	2000	1250	2000	1000	2023/02/15	R		DBFNGR				549300T8SOCBO2H77X11				S		T	10299150	C	2021/02/15	2022/02/14			USD	2095	O	30	60	US	104.75	B	N	A
U	2018/08/03	2018/09/19	5632162	190661	1221966	7706166	1967935	U	USL5150GAC26	L5150GAC2	BF4MYV5	F	ZZ	BBG00LLZ9N11	INTEL 9.5 02/15/23 REGS	DEFSX	XFRA		9.50% NT REDEEM 15/02/2023 USD 2000 - Reg S	USD	BND	Intelsat Connect Finance S.A.	2018/08/16	1250	US	CORP	9.5	FXD	2000	2000	1250	2000	1000	2023/02/15	R		DBFNGR				549300T8SOCBO2H77X11				S		T	10299151	C	2022/02/15	2023/02/14			USD	2000	O	30	60	US	100	B	N	A
U	2016/09/20	2016/12/13	4906392	179782	844408	6876756	1774326	U	USN9837TAB72	N9837TAB7	BYQ7J72	F	NL	BBG00DT1CXF5	ZIGGO 6 01/15/27 REGS	DEFSX	XFRA		6% NT REDEEM 15/01/2027 USD 150000 - Reg S	USD	BND	Ziggo Bond Finance B.V.	2016/09/23	625.00000	NL	CORP	6.00000	FXD	150000.000000	150000.00000	625.00000	150000.00000	1000	2027/01/15	R		DBFUGR				5493000YDO2OTY2PZU63				S		T	9922226	C	2016/09/24	2022/01/14			USD		O	10	60	US		B	Y	A
U	2016/09/20	2016/12/13	4906392	179782	844408	6876756	1774326	U	USN9837TAB72	N9837TAB7	BYQ7J72	F	NL	BBG00DT1CXF5	ZIGGO 6 01/15/27 REGS	DEFSX	XFRA		6% NT REDEEM 15/01/2027 USD 150000 - Reg S	USD	BND	Ziggo Bond Finance B.V.	2016/09/23	625.00000	NL	CORP	6.00000	FXD	150000.000000	150000.00000	625.00000	150000.00000	1000	2027/01/15	R		DBFUGR				5493000YDO2OTY2PZU63				S		T	9876759	C	2022/01/15	2023/01/14			USD	154500.00000	O	10	60	US	103.000000000	B	N	A
U	2016/09/20	2016/12/13	4906392	179782	844408	6876756	1774326	U	USN9837TAB72	N9837TAB7	BYQ7J72	F	NL	BBG00DT1CXF5	ZIGGO 6 01/15/27 REGS	DEFSX	XFRA		6% NT REDEEM 15/01/2027 USD 150000 - Reg S	USD	BND	Ziggo Bond Finance B.V.	2016/09/23	625.00000	NL	CORP	6.00000	FXD	150000.000000	150000.00000	625.00000	150000.00000	1000	2027/01/15	R		DBFUGR				5493000YDO2OTY2PZU63				S		T	9876760	C	2023/01/15	2024/01/14			USD	153000.00000	O	10	60	US	102.000000000	B	N	A
U	2016/09/20	2016/12/13	4906392	179782	844408	6876756	1774326	U	USN9837TAB72	N9837TAB7	BYQ7J72	F	NL	BBG00DT1CXF5	ZIGGO 6 01/15/27 REGS	DEFSX	XFRA		6% NT REDEEM 15/01/2027 USD 150000 - Reg S	USD	BND	Ziggo Bond Finance B.V.	2016/09/23	625.00000	NL	CORP	6.00000	FXD	150000.000000	150000.00000	625.00000	150000.00000	1000	2027/01/15	R		DBFUGR				5493000YDO2OTY2PZU63				S		T	9876761	C	2024/01/15	2025/01/14			USD	151500.00000	O	10	60	US	101.000000000	B	N	A
U	2016/09/20	2016/12/13	4906392	179782	844408	6876756	1774326	U	USN9837TAB72	N9837TAB7	BYQ7J72	F	NL	BBG00DT1CXF5	ZIGGO 6 01/15/27 REGS	DEFSX	XFRA		6% NT REDEEM 15/01/2027 USD 150000 - Reg S	USD	BND	Ziggo Bond Finance B.V.	2016/09/23	625.00000	NL	CORP	6.00000	FXD	150000.000000	150000.00000	625.00000	150000.00000	1000	2027/01/15	R		DBFUGR				5493000YDO2OTY2PZU63				S		T	9876762	C	2025/01/15	2027/01/14			USD	150000.00000	O	10	60	US	100.000000000	B	N	A
U	2016/09/20		4906392	179782	844408	6873179	0		USN9837TAB72	N9837TAB7				BBG00DT1CXF5	ZIGGO 6 01/15/27 REGS	IEISE	XDUB		6% NT REDEEM 15/01/2027 USD 150000 - Reg S	USD	BND	Ziggo Bond Finance B.V.	2016/09/23	625.00000	NL	CORP	6.00000	FXD	150000.000000	150000.00000	625.00000	150000.00000	1000	2027/01/15	R		DBFUGR				5493000YDO2OTY2PZU63				S		T	9922226	C	2016/09/24	2022/01/14			USD		O	10	60	US		B	Y	A
U	2016/09/20		4906392	179782	844408	6873179	0		USN9837TAB72	N9837TAB7				BBG00DT1CXF5	ZIGGO 6 01/15/27 REGS	IEISE	XDUB		6% NT REDEEM 15/01/2027 USD 150000 - Reg S	USD	BND	Ziggo Bond Finance B.V.	2016/09/23	625.00000	NL	CORP	6.00000	FXD	150000.000000	150000.00000	625.00000	150000.00000	1000	2027/01/15	R		DBFUGR				5493000YDO2OTY2PZU63				S		T	9876759	C	2022/01/15	2023/01/14			USD	154500.00000	O	10	60	US	103.000000000	B	N	A
U	2016/09/20		4906392	179782	844408	6873179	0		USN9837TAB72	N9837TAB7				BBG00DT1CXF5	ZIGGO 6 01/15/27 REGS	IEISE	XDUB		6% NT REDEEM 15/01/2027 USD 150000 - Reg S	USD	BND	Ziggo Bond Finance B.V.	2016/09/23	625.00000	NL	CORP	6.00000	FXD	150000.000000	150000.00000	625.00000	150000.00000	1000	2027/01/15	R		DBFUGR				5493000YDO2OTY2PZU63				S		T	9876760	C	2023/01/15	2024/01/14			USD	153000.00000	O	10	60	US	102.000000000	B	N	A
U	2016/09/20		4906392	179782	844408	6873179	0		USN9837TAB72	N9837TAB7				BBG00DT1CXF5	ZIGGO 6 01/15/27 REGS	IEISE	XDUB		6% NT REDEEM 15/01/2027 USD 150000 - Reg S	USD	BND	Ziggo Bond Finance B.V.	2016/09/23	625.00000	NL	CORP	6.00000	FXD	150000.000000	150000.00000	625.00000	150000.00000	1000	2027/01/15	R		DBFUGR				5493000YDO2OTY2PZU63				S		T	9876761	C	2024/01/15	2025/01/14			USD	151500.00000	O	10	60	US	101.000000000	B	N	A
U	2016/09/20		4906392	179782	844408	6873179	0		USN9837TAB72	N9837TAB7				BBG00DT1CXF5	ZIGGO 6 01/15/27 REGS	IEISE	XDUB		6% NT REDEEM 15/01/2027 USD 150000 - Reg S	USD	BND	Ziggo Bond Finance B.V.	2016/09/23	625.00000	NL	CORP	6.00000	FXD	150000.000000	150000.00000	625.00000	150000.00000	1000	2027/01/15	R		DBFUGR				5493000YDO2OTY2PZU63				S		T	9876762	C	2025/01/15	2027/01/14			USD	150000.00000	O	10	60	US	100.000000000	B	N	A
U	2016/09/20		4906708	179781	844409	6874805	1792858	I	USN9838NAA11	N9838NAA1	BYX5YD0	F	NL	BBG00DT1B2B8	ZIGGO 5.5 01/15/27 REGS	IEISE	XDUB		5.50% NT REDEEM 15/01/2027 USD 150000	USD	BND	Ziggo Secured Finance B.V.	2016/09/23	2000.00000	NL	CORP	5.50000	FXD	150000.000000	150000.00000	2000.00000	150000.00000	1000	2027/01/15	R		DBFSGR				5493004ZFKKSO1IHO030				S		T	9921615	C	2016/09/24	2022/01/14			USD		O	10	60	US		B	Y	A
U	2016/09/20		4906708	179781	844409	6874805	1792858	I	USN9838NAA11	N9838NAA1	BYX5YD0	F	NL	BBG00DT1B2B8	ZIGGO 5.5 01/15/27 REGS	IEISE	XDUB		5.50% NT REDEEM 15/01/2027 USD 150000	USD	BND	Ziggo Secured Finance B.V.	2016/09/23	2000.00000	NL	CORP	5.50000	FXD	150000.000000	150000.00000	2000.00000	150000.00000	1000	2027/01/15	R		DBFSGR				5493004ZFKKSO1IHO030				S		T	9877500	C	2022/01/15	2023/01/14			USD	154125.00000	O	10	60	US	102.750000000	B	N	A
U	2016/09/20		4906708	179781	844409	6874805	1792858	I	USN9838NAA11	N9838NAA1	BYX5YD0	F	NL	BBG00DT1B2B8	ZIGGO 5.5 01/15/27 REGS	IEISE	XDUB		5.50% NT REDEEM 15/01/2027 USD 150000	USD	BND	Ziggo Secured Finance B.V.	2016/09/23	2000.00000	NL	CORP	5.50000	FXD	150000.000000	150000.00000	2000.00000	150000.00000	1000	2027/01/15	R		DBFSGR				5493004ZFKKSO1IHO030				S		T	9877501	C	2023/01/15	2024/01/14			USD	152749.50000	O	10	60	US	101.833000000	B	N	A
U	2016/09/20		4906708	179781	844409	6874805	1792858	I	USN9838NAA11	N9838NAA1	BYX5YD0	F	NL	BBG00DT1B2B8	ZIGGO 5.5 01/15/27 REGS	IEISE	XDUB		5.50% NT REDEEM 15/01/2027 USD 150000	USD	BND	Ziggo Secured Finance B.V.	2016/09/23	2000.00000	NL	CORP	5.50000	FXD	150000.000000	150000.00000	2000.00000	150000.00000	1000	2027/01/15	R		DBFSGR				5493004ZFKKSO1IHO030				S		T	9877502	C	2024/01/15	2025/01/14			USD	151375.50000	O	10	60	US	100.917000000	B	N	A
U	2016/09/20		4906708	179781	844409	6874805	1792858	I	USN9838NAA11	N9838NAA1	BYX5YD0	F	NL	BBG00DT1B2B8	ZIGGO 5.5 01/15/27 REGS	IEISE	XDUB		5.50% NT REDEEM 15/01/2027 USD 150000	USD	BND	Ziggo Secured Finance B.V.	2016/09/23	2000.00000	NL	CORP	5.50000	FXD	150000.000000	150000.00000	2000.00000	150000.00000	1000	2027/01/15	R		DBFSGR				5493004ZFKKSO1IHO030				S		T	9877503	C	2025/01/15	2027/01/14			USD	150000.00000	O	10	60	US	100.000000000	B	N	A
U	2016/09/20	2016/12/12	4906708	179781	844409	6880123	1774323	U	USN9838NAA11	N9838NAA1	BZCR8D2	F	NL	BBG00DT1B2B8	ZIGGO 5.5 01/15/27 REGS	DEFSX	XFRA		5.50% NT REDEEM 15/01/2027 USD 150000	USD	BND	Ziggo Secured Finance B.V.	2016/09/23	2000.00000	NL	CORP	5.50000	FXD	150000.000000	150000.00000	2000.00000	150000.00000	1000	2027/01/15	R		DBFSGR				5493004ZFKKSO1IHO030				S		T	9921615	C	2016/09/24	2022/01/14			USD		O	10	60	US		B	Y	A
U	2016/09/20	2016/12/12	4906708	179781	844409	6880123	1774323	U	USN9838NAA11	N9838NAA1	BZCR8D2	F	NL	BBG00DT1B2B8	ZIGGO 5.5 01/15/27 REGS	DEFSX	XFRA		5.50% NT REDEEM 15/01/2027 USD 150000	USD	BND	Ziggo Secured Finance B.V.	2016/09/23	2000.00000	NL	CORP	5.50000	FXD	150000.000000	150000.00000	2000.00000	150000.00000	1000	2027/01/15	R		DBFSGR				5493004ZFKKSO1IHO030				S		T	9877500	C	2022/01/15	2023/01/14			USD	154125.00000	O	10	60	US	102.750000000	B	N	A
U	2016/09/20	2016/12/12	4906708	179781	844409	6880123	1774323	U	USN9838NAA11	N9838NAA1	BZCR8D2	F	NL	BBG00DT1B2B8	ZIGGO 5.5 01/15/27 REGS	DEFSX	XFRA		5.50% NT REDEEM 15/01/2027 USD 150000	USD	BND	Ziggo Secured Finance B.V.	2016/09/23	2000.00000	NL	CORP	5.50000	FXD	150000.000000	150000.00000	2000.00000	150000.00000	1000	2027/01/15	R		DBFSGR				5493004ZFKKSO1IHO030				S		T	9877501	C	2023/01/15	2024/01/14			USD	152749.50000	O	10	60	US	101.833000000	B	N	A
U	2016/09/20	2016/12/12	4906708	179781	844409	6880123	1774323	U	USN9838NAA11	N9838NAA1	BZCR8D2	F	NL	BBG00DT1B2B8	ZIGGO 5.5 01/15/27 REGS	DEFSX	XFRA		5.50% NT REDEEM 15/01/2027 USD 150000	USD	BND	Ziggo Secured Finance B.V.	2016/09/23	2000.00000	NL	CORP	5.50000	FXD	150000.000000	150000.00000	2000.00000	150000.00000	1000	2027/01/15	R		DBFSGR				5493004ZFKKSO1IHO030				S		T	9877502	C	2024/01/15	2025/01/14			USD	151375.50000	O	10	60	US	100.917000000	B	N	A
U	2016/09/20	2016/12/12	4906708	179781	844409	6880123	1774323	U	USN9838NAA11	N9838NAA1	BZCR8D2	F	NL	BBG00DT1B2B8	ZIGGO 5.5 01/15/27 REGS	DEFSX	XFRA		5.50% NT REDEEM 15/01/2027 USD 150000	USD	BND	Ziggo Secured Finance B.V.	2016/09/23	2000.00000	NL	CORP	5.50000	FXD	150000.000000	150000.00000	2000.00000	150000.00000	1000	2027/01/15	R		DBFSGR				5493004ZFKKSO1IHO030				S		T	9877503	C	2025/01/15	2027/01/14			USD	150000.00000	O	10	60	US	100.000000000	B	N	A
U	2016/09/20	2016/12/12	4906708	179781	844409	6897243	0		USN9838NAA11	N9838NAA1				BBG00DT1B2B8	ZIGGO 5.5 01/15/27 REGS	USTRCE	FINR	ZIGGF4405396	5.50% NT REDEEM 15/01/2027 USD 150000	USD	BND	Ziggo Secured Finance B.V.	2016/09/23	2000.00000	NL	CORP	5.50000	FXD	150000.000000	150000.00000	2000.00000	150000.00000	1000	2027/01/15	R		DBFSGR				5493004ZFKKSO1IHO030				S		T	9921615	C	2016/09/24	2022/01/14			USD		O	10	60	US		B	Y	A
U	2016/09/20	2016/12/12	4906708	179781	844409	6897243	0		USN9838NAA11	N9838NAA1				BBG00DT1B2B8	ZIGGO 5.5 01/15/27 REGS	USTRCE	FINR	ZIGGF4405396	5.50% NT REDEEM 15/01/2027 USD 150000	USD	BND	Ziggo Secured Finance B.V.	2016/09/23	2000.00000	NL	CORP	5.50000	FXD	150000.000000	150000.00000	2000.00000	150000.00000	1000	2027/01/15	R		DBFSGR				5493004ZFKKSO1IHO030				S		T	9877500	C	2022/01/15	2023/01/14			USD	154125.00000	O	10	60	US	102.750000000	B	N	A
U	2016/09/20	2016/12/12	4906708	179781	844409	6897243	0		USN9838NAA11	N9838NAA1				BBG00DT1B2B8	ZIGGO 5.5 01/15/27 REGS	USTRCE	FINR	ZIGGF4405396	5.50% NT REDEEM 15/01/2027 USD 150000	USD	BND	Ziggo Secured Finance B.V.	2016/09/23	2000.00000	NL	CORP	5.50000	FXD	150000.000000	150000.00000	2000.00000	150000.00000	1000	2027/01/15	R		DBFSGR				5493004ZFKKSO1IHO030				S		T	9877501	C	2023/01/15	2024/01/14			USD	152749.50000	O	10	60	US	101.833000000	B	N	A
U	2016/09/20	2016/12/12	4906708	179781	844409	6897243	0		USN9838NAA11	N9838NAA1				BBG00DT1B2B8	ZIGGO 5.5 01/15/27 REGS	USTRCE	FINR	ZIGGF4405396	5.50% NT REDEEM 15/01/2027 USD 150000	USD	BND	Ziggo Secured Finance B.V.	2016/09/23	2000.00000	NL	CORP	5.50000	FXD	150000.000000	150000.00000	2000.00000	150000.00000	1000	2027/01/15	R		DBFSGR				5493004ZFKKSO1IHO030				S		T	9877502	C	2024/01/15	2025/01/14			USD	151375.50000	O	10	60	US	100.917000000	B	N	A
U	2016/09/20	2016/12/12	4906708	179781	844409	6897243	0		USN9838NAA11	N9838NAA1				BBG00DT1B2B8	ZIGGO 5.5 01/15/27 REGS	USTRCE	FINR	ZIGGF4405396	5.50% NT REDEEM 15/01/2027 USD 150000	USD	BND	Ziggo Secured Finance B.V.	2016/09/23	2000.00000	NL	CORP	5.50000	FXD	150000.000000	150000.00000	2000.00000	150000.00000	1000	2027/01/15	R		DBFSGR				5493004ZFKKSO1IHO030				S		T	9877503	C	2025/01/15	2027/01/14			USD	150000.00000	O	10	60	US	100.000000000	B	N	A
U	2018/07/25	2018/08/08	5621211	102632	1218635	7677863	1964239	I	USU04503AE50	U04503AE5	BFZ4R11	F	US	BBG00LJN03P8	AHTLN 5.25 08/01/26 REGS	GBLSE	XLON	45UC	5.25% NT REDEEM 01/08/2026 USD 200000 - Reg S	USD	BND	Ashtead Capital Inc	2018/07/26	600	US	CORP	5.25	FXD	200000	200000	600	200000	1000	2026/08/01	R	43	DBFSGR				213800J1134IW58IC398				S		T	10278215	C	2018/07/27	2021/07/31			USD		O	10	60	MWC		B	Y	A
U	2018/07/25	2018/08/08	5621211	102632	1218635	7677863	1964239	I	USU04503AE50	U04503AE5	BFZ4R11	F	US	BBG00LJN03P8	AHTLN 5.25 08/01/26 REGS	GBLSE	XLON	45UC	5.25% NT REDEEM 01/08/2026 USD 200000 - Reg S	USD	BND	Ashtead Capital Inc	2018/07/26	600	US	CORP	5.25	FXD	200000	200000	600	200000	1000	2026/08/01	R	43	DBFSGR				213800J1134IW58IC398				S		T	10278216	C	2021/08/01	2022/07/31			USD	207876	O	10	60	US	103.938	B	N	A
U	2018/07/25	2018/08/08	5621211	102632	1218635	7677863	1964239	I	USU04503AE50	U04503AE5	BFZ4R11	F	US	BBG00LJN03P8	AHTLN 5.25 08/01/26 REGS	GBLSE	XLON	45UC	5.25% NT REDEEM 01/08/2026 USD 200000 - Reg S	USD	BND	Ashtead Capital Inc	2018/07/26	600	US	CORP	5.25	FXD	200000	200000	600	200000	1000	2026/08/01	R	43	DBFSGR				213800J1134IW58IC398				S		T	10278217	C	2022/08/01	2023/07/31			USD	205250	O	10	60	US	102.625	B	N	A
U	2018/07/25	2018/08/08	5621211	102632	1218635	7677863	1964239	I	USU04503AE50	U04503AE5	BFZ4R11	F	US	BBG00LJN03P8	AHTLN 5.25 08/01/26 REGS	GBLSE	XLON	45UC	5.25% NT REDEEM 01/08/2026 USD 200000 - Reg S	USD	BND	Ashtead Capital Inc	2018/07/26	600	US	CORP	5.25	FXD	200000	200000	600	200000	1000	2026/08/01	R	43	DBFSGR				213800J1134IW58IC398				S		T	10278218	C	2023/08/01	2024/07/31			USD	202626	O	10	60	US	101.313	B	N	A
U	2018/07/25	2018/08/08	5621211	102632	1218635	7677863	1964239	I	USU04503AE50	U04503AE5	BFZ4R11	F	US	BBG00LJN03P8	AHTLN 5.25 08/01/26 REGS	GBLSE	XLON	45UC	5.25% NT REDEEM 01/08/2026 USD 200000 - Reg S	USD	BND	Ashtead Capital Inc	2018/07/26	600	US	CORP	5.25	FXD	200000	200000	600	200000	1000	2026/08/01	R	43	DBFSGR				213800J1134IW58IC398				S		T	10278219	C	2024/08/01	2026/07/31			USD	200000	O	10	60	US	100	B	N	A
U	2018/07/25	2018/07/30	5621211	102632	1218635	7678642	0		USU04503AE50	U04503AE5				BBG00LJN03P8	AHTLN 5.25 08/01/26 REGS	USTRCE	FINR	ASHT4659301	5.25% NT REDEEM 01/08/2026 USD 200000 - Reg S	USD	BND	Ashtead Capital Inc	2018/07/26	600	US	CORP	5.25	FXD	200000	200000	600	200000	1000	2026/08/01	R	43	DBFSGR				213800J1134IW58IC398				S		T	10278215	C	2018/07/27	2021/07/31			USD		O	10	60	MWC		B	Y	A
U	2018/07/25	2018/07/30	5621211	102632	1218635	7678642	0		USU04503AE50	U04503AE5				BBG00LJN03P8	AHTLN 5.25 08/01/26 REGS	USTRCE	FINR	ASHT4659301	5.25% NT REDEEM 01/08/2026 USD 200000 - Reg S	USD	BND	Ashtead Capital Inc	2018/07/26	600	US	CORP	5.25	FXD	200000	200000	600	200000	1000	2026/08/01	R	43	DBFSGR				213800J1134IW58IC398				S		T	10278216	C	2021/08/01	2022/07/31			USD	207876	O	10	60	US	103.938	B	N	A
U	2018/07/25	2018/07/30	5621211	102632	1218635	7678642	0		USU04503AE50	U04503AE5				BBG00LJN03P8	AHTLN 5.25 08/01/26 REGS	USTRCE	FINR	ASHT4659301	5.25% NT REDEEM 01/08/2026 USD 200000 - Reg S	USD	BND	Ashtead Capital Inc	2018/07/26	600	US	CORP	5.25	FXD	200000	200000	600	200000	1000	2026/08/01	R	43	DBFSGR				213800J1134IW58IC398				S		T	10278217	C	2022/08/01	2023/07/31			USD	205250	O	10	60	US	102.625	B	N	A
U	2018/07/25	2018/07/30	5621211	102632	1218635	7678642	0		USU04503AE50	U04503AE5				BBG00LJN03P8	AHTLN 5.25 08/01/26 REGS	USTRCE	FINR	ASHT4659301	5.25% NT REDEEM 01/08/2026 USD 200000 - Reg S	USD	BND	Ashtead Capital Inc	2018/07/26	600	US	CORP	5.25	FXD	200000	200000	600	200000	1000	2026/08/01	R	43	DBFSGR				213800J1134IW58IC398				S		T	10278218	C	2023/08/01	2024/07/31			USD	202626	O	10	60	US	101.313	B	N	A
U	2018/07/25	2018/07/30	5621211	102632	1218635	7678642	0		USU04503AE50	U04503AE5				BBG00LJN03P8	AHTLN 5.25 08/01/26 REGS	USTRCE	FINR	ASHT4659301	5.25% NT REDEEM 01/08/2026 USD 200000 - Reg S	USD	BND	Ashtead Capital Inc	2018/07/26	600	US	CORP	5.25	FXD	200000	200000	600	200000	1000	2026/08/01	R	43	DBFSGR				213800J1134IW58IC398				S		T	10278219	C	2024/08/01	2026/07/31			USD	200000	O	10	60	US	100	B	N	A
U	2017/01/19	2018/08/15	5023821	39669	923858	7002508	1827887	I	USU88125AC04	U88125AC0	BYWW5V7	F		BBG00FRXKB25	TEX 5.625 02/01/25 REGS	USTRCE	FINR	TEX4445873	5.625% NT REDEEM 01/02/2025 USD 2000 - Reg S	USD	BND	Terex Corp.	2017/01/31	600	US	CORP	5.625	FXD	2000	2000	600	2000	1000	2025/02/01	R	83		0000097216	3537	20106010	YAWJZJYEQ7M1SYMOS462	336120			S		T	10189354	C	2017/02/01	2020/01/31			USD		O	20	60	US		B	Y	A
U	2017/01/19	2018/08/15	5023821	39669	923858	7002508	1827887	I	USU88125AC04	U88125AC0	BYWW5V7	F		BBG00FRXKB25	TEX 5.625 02/01/25 REGS	USTRCE	FINR	TEX4445873	5.625% NT REDEEM 01/02/2025 USD 2000 - Reg S	USD	BND	Terex Corp.	2017/01/31	600	US	CORP	5.625	FXD	2000	2000	600	2000	1000	2025/02/01	R	83		0000097216	3537	20106010	YAWJZJYEQ7M1SYMOS462	336120			S		T	9944331	C	2020/02/01	2021/01/31			USD	2084.38	O	20	60	US	104.219	B	N	A
U	2017/01/19	2018/08/15	5023821	39669	923858	7002508	1827887	I	USU88125AC04	U88125AC0	BYWW5V7	F		BBG00FRXKB25	TEX 5.625 02/01/25 REGS	USTRCE	FINR	TEX4445873	5.625% NT REDEEM 01/02/2025 USD 2000 - Reg S	USD	BND	Terex Corp.	2017/01/31	600	US	CORP	5.625	FXD	2000	2000	600	2000	1000	2025/02/01	R	83		0000097216	3537	20106010	YAWJZJYEQ7M1SYMOS462	336120			S		T	9944332	C	2021/02/01	2022/01/31			USD	2056.2	O	20	60	US	102.81	B	N	A
U	2017/01/19	2018/08/15	5023821	39669	923858	7002508	1827887	I	USU88125AC04	U88125AC0	BYWW5V7	F		BBG00FRXKB25	TEX 5.625 02/01/25 REGS	USTRCE	FINR	TEX4445873	5.625% NT REDEEM 01/02/2025 USD 2000 - Reg S	USD	BND	Terex Corp.	2017/01/31	600	US	CORP	5.625	FXD	2000	2000	600	2000	1000	2025/02/01	R	83		0000097216	3537	20106010	YAWJZJYEQ7M1SYMOS462	336120			S		T	9944333	C	2022/02/01	2023/01/31			USD	2028.12	O	20	60	US	101.406	B	N	A
U	2017/01/19	2018/08/15	5023821	39669	923858	7002508	1827887	I	USU88125AC04	U88125AC0	BYWW5V7	F		BBG00FRXKB25	TEX 5.625 02/01/25 REGS	USTRCE	FINR	TEX4445873	5.625% NT REDEEM 01/02/2025 USD 2000 - Reg S	USD	BND	Terex Corp.	2017/01/31	600	US	CORP	5.625	FXD	2000	2000	600	2000	1000	2025/02/01	R	83		0000097216	3537	20106010	YAWJZJYEQ7M1SYMOS462	336120			S		T	9944334	C	2023/02/01	2025/01/31			USD	2000	O	20	60	US	100	B	N	A
U	2016/10/17	2018/08/30	4935779	131951	865022	6905424	1789651	I	USU97128AG40	U97128AG4	BYMB3K9	F		BBG00DZMJ1T0	WMG 4.875 11/01/24 REGS	USTRCE	FINR	WMG4415101	4.875% NT REDEEM 01/11/2024 USD 2000 - Reg S	USD	BND	Wmg Acquisition Corp.	2016/10/18	250.00000	US	CORP	4.87500	FXD	2000.000000	2000.00000	250.00000	2000.00000	1000	2024/11/01	R		DBFSGR	0001309987	7900		549300NAS11NXI33CP80				S		T	9959668	C	2016/10/19	2019/10/31			USD		O	10	60	US		B	Y	A
U	2016/10/17	2018/08/30	4935779	131951	865022	6905424	1789651	I	USU97128AG40	U97128AG4	BYMB3K9	F		BBG00DZMJ1T0	WMG 4.875 11/01/24 REGS	USTRCE	FINR	WMG4415101	4.875% NT REDEEM 01/11/2024 USD 2000 - Reg S	USD	BND	Wmg Acquisition Corp.	2016/10/18	250.00000	US	CORP	4.87500	FXD	2000.000000	2000.00000	250.00000	2000.00000	1000	2024/11/01	R		DBFSGR	0001309987	7900		549300NAS11NXI33CP80				S		T	9893376	C	2019/11/01	2020/10/31			USD	2073.12000	O	10	60	US	103.656000000	B	N	A
U	2016/10/17	2018/08/30	4935779	131951	865022	6905424	1789651	I	USU97128AG40	U97128AG4	BYMB3K9	F		BBG00DZMJ1T0	WMG 4.875 11/01/24 REGS	USTRCE	FINR	WMG4415101	4.875% NT REDEEM 01/11/2024 USD 2000 - Reg S	USD	BND	Wmg Acquisition Corp.	2016/10/18	250.00000	US	CORP	4.87500	FXD	2000.000000	2000.00000	250.00000	2000.00000	1000	2024/11/01	R		DBFSGR	0001309987	7900		549300NAS11NXI33CP80				S		T	9893377	C	2020/11/01	2021/10/31			USD	2048.76000	O	10	60	US	102.438000000	B	N	A
U	2016/10/17	2018/08/30	4935779	131951	865022	6905424	1789651	I	USU97128AG40	U97128AG4	BYMB3K9	F		BBG00DZMJ1T0	WMG 4.875 11/01/24 REGS	USTRCE	FINR	WMG4415101	4.875% NT REDEEM 01/11/2024 USD 2000 - Reg S	USD	BND	Wmg Acquisition Corp.	2016/10/18	250.00000	US	CORP	4.87500	FXD	2000.000000	2000.00000	250.00000	2000.00000	1000	2024/11/01	R		DBFSGR	0001309987	7900		549300NAS11NXI33CP80				S		T	9893378	C	2021/11/01	2022/10/31			USD	2024.38000	O	10	60	US	101.219000000	B	N	A
U	2016/10/17	2018/08/30	4935779	131951	865022	6905424	1789651	I	USU97128AG40	U97128AG4	BYMB3K9	F		BBG00DZMJ1T0	WMG 4.875 11/01/24 REGS	USTRCE	FINR	WMG4415101	4.875% NT REDEEM 01/11/2024 USD 2000 - Reg S	USD	BND	Wmg Acquisition Corp.	2016/10/18	250.00000	US	CORP	4.87500	FXD	2000.000000	2000.00000	250.00000	2000.00000	1000	2024/11/01	R		DBFSGR	0001309987	7900		549300NAS11NXI33CP80				S		T	9893379	C	2022/11/01	2024/10/31			USD	2000.00000	O	10	60	US	100.000000000	B	N	A
U	2013/06/13	2018/07/03	4056461	111411	500769	5818628	1443828	I	XS0940700668	N45820AG7	BBR6W67	F	ZZ	BBG004LYK331	INTGEN 7 06/30/23 REGS	IEISE	XDUB		7% NT REDEEM 30/06/2023 USD 200000 - Reg S	USD	BND	Intergen N.V.	2013/06/13	750	NL	CORP	7	FXD	200000	200000	420	200000.00000	1000	2023/06/30	R		DYFXXR				549300E3XRGX2JMPEC79				S		T	8505466	C	2013/06/14	2018/06/29			USD		O	30	60	US		B	Y	A
U	2013/06/13	2018/07/03	4056461	111411	500769	5818628	1443828	I	XS0940700668	N45820AG7	BBR6W67	F	ZZ	BBG004LYK331	INTGEN 7 06/30/23 REGS	IEISE	XDUB		7% NT REDEEM 30/06/2023 USD 200000 - Reg S	USD	BND	Intergen N.V.	2013/06/13	750	NL	CORP	7	FXD	200000	200000	420	200000.00000	1000	2023/06/30	R		DYFXXR				549300E3XRGX2JMPEC79				S		T	8505467	C	2018/06/30	2019/06/29			USD	207000.00000	O	30	60	US	103.500000000	B	N	A
U	2013/06/13	2018/07/03	4056461	111411	500769	5818628	1443828	I	XS0940700668	N45820AG7	BBR6W67	F	ZZ	BBG004LYK331	INTGEN 7 06/30/23 REGS	IEISE	XDUB		7% NT REDEEM 30/06/2023 USD 200000 - Reg S	USD	BND	Intergen N.V.	2013/06/13	750	NL	CORP	7	FXD	200000	200000	420	200000.00000	1000	2023/06/30	R		DYFXXR				549300E3XRGX2JMPEC79				S		T	8505468	C	2019/06/30	2020/06/29			USD	204666.00000	O	30	60	US	102.333000000	B	N	A
U	2013/06/13	2018/07/03	4056461	111411	500769	5818628	1443828	I	XS0940700668	N45820AG7	BBR6W67	F	ZZ	BBG004LYK331	INTGEN 7 06/30/23 REGS	IEISE	XDUB		7% NT REDEEM 30/06/2023 USD 200000 - Reg S	USD	BND	Intergen N.V.	2013/06/13	750	NL	CORP	7	FXD	200000	200000	420	200000.00000	1000	2023/06/30	R		DYFXXR				549300E3XRGX2JMPEC79				S		T	8505469	C	2020/06/30	2021/06/29			USD	202334.00000	O	30	60	US	101.167000000	B	N	A
U	2013/06/13	2018/07/03	4056461	111411	500769	5818628	1443828	I	XS0940700668	N45820AG7	BBR6W67	F	ZZ	BBG004LYK331	INTGEN 7 06/30/23 REGS	IEISE	XDUB		7% NT REDEEM 30/06/2023 USD 200000 - Reg S	USD	BND	Intergen N.V.	2013/06/13	750	NL	CORP	7	FXD	200000	200000	420	200000.00000	1000	2023/06/30	R		DYFXXR				549300E3XRGX2JMPEC79				S		T	8505470	C	2021/06/30	2023/06/29			USD	200000.00000	O	30	60	US	100.000000000	B	N	A
U	2013/06/11	2018/07/03	4055280	111411	500770	5800182	1440839	I	XS0940701807		BB22L85	F	ZZ	BBG004LYKZP6	INTGEN 7.5 06/30/21 REGS	IEISE	XDUB		7.50% NT REDEEM 30/06/2021 GBP 100000 - Reg S	GBP	BND	Intergen N.V.	2013/06/13	175	NL	CORP	7.5	FXD	100000	100000	93.4	100000.00000	1000	2021/06/30	R		DYFXXR				549300E3XRGX2JMPEC79				S		T	8505480	C	2013/06/14	2017/06/29			GBP		O	30	60	US		B	Y	A
U	2013/06/11	2018/07/03	4055280	111411	500770	5800182	1440839	I	XS0940701807		BB22L85	F	ZZ	BBG004LYKZP6	INTGEN 7.5 06/30/21 REGS	IEISE	XDUB		7.50% NT REDEEM 30/06/2021 GBP 100000 - Reg S	GBP	BND	Intergen N.V.	2013/06/13	175	NL	CORP	7.5	FXD	100000	100000	93.4	100000.00000	1000	2021/06/30	R		DYFXXR				549300E3XRGX2JMPEC79				S		T	8505481	C	2017/06/30	2018/06/29			GBP	103750.00000	O	30	60	US	103.750000000	B	N	A
U	2013/06/11	2018/07/03	4055280	111411	500770	5800182	1440839	I	XS0940701807		BB22L85	F	ZZ	BBG004LYKZP6	INTGEN 7.5 06/30/21 REGS	IEISE	XDUB		7.50% NT REDEEM 30/06/2021 GBP 100000 - Reg S	GBP	BND	Intergen N.V.	2013/06/13	175	NL	CORP	7.5	FXD	100000	100000	93.4	100000.00000	1000	2021/06/30	R		DYFXXR				549300E3XRGX2JMPEC79				S		T	8505482	C	2018/06/30	2019/06/29			GBP	101875.00000	O	30	60	US	101.875000000	B	N	A
U	2013/06/11	2018/07/03	4055280	111411	500770	5800182	1440839	I	XS0940701807		BB22L85	F	ZZ	BBG004LYKZP6	INTGEN 7.5 06/30/21 REGS	IEISE	XDUB		7.50% NT REDEEM 30/06/2021 GBP 100000 - Reg S	GBP	BND	Intergen N.V.	2013/06/13	175	NL	CORP	7.5	FXD	100000	100000	93.4	100000.00000	1000	2021/06/30	R		DYFXXR				549300E3XRGX2JMPEC79				S		T	8505483	C	2019/06/30	2021/06/29			GBP	100000.00000	O	30	60	US	100.000000000	B	N	A
EDI_ENDOFFILE